<svg width="24" height="24" viewBox="0 0 24 24" fill="none" xmlns="http://www.w3.org/2000/svg">
<path d="M21.5719 0.75003H2.42812C1.99193 0.747408 1.57204 0.915685 1.25839 1.21883C0.944735 1.52197 0.762245 1.93587 0.75 2.3719V21.5625C0.759845 21.9994 0.941584 22.4147 1.25577 22.7183C1.56995 23.022 1.99122 23.1895 2.42812 23.1844H21.5719C22.0088 23.1895 22.4301 23.022 22.7442 22.7183C23.0584 22.4147 23.2402 21.9994 23.25 21.5625V2.3719C23.2378 1.93587 23.0553 1.52197 22.7416 1.21883C22.428 0.915685 22.0081 0.747408 21.5719 0.75003ZM7.41562 19.8844H4.11563V9.18753H7.41562V19.8844ZM5.80313 7.6969C5.29646 7.69705 4.80983 7.49904 4.44721 7.14518C4.08459 6.79132 3.87474 6.30967 3.8625 5.80315C3.85332 5.54584 3.89724 5.28939 3.99152 5.04979C4.0858 4.81019 4.22842 4.59258 4.41048 4.41051C4.59255 4.22845 4.81016 4.08583 5.04976 3.99155C5.28936 3.89727 5.54581 3.85335 5.80313 3.86253C6.29329 3.89666 6.75226 4.11545 7.08741 4.47476C7.42257 4.83406 7.60895 5.30712 7.60895 5.79847C7.60895 6.28982 7.42257 6.76288 7.08741 7.12218C6.75226 7.48148 6.29329 7.70027 5.80313 7.7344V7.6969ZM19.95 19.8188H16.6875V14.5875C16.6875 13.3407 16.6875 11.7188 14.9437 11.7188C13.2 11.7188 12.9375 13.0875 12.9375 14.4657V19.7625H9.6V9.18753H12.7125V10.5938H12.7781C13.0971 10.0397 13.5623 9.58406 14.1228 9.27653C14.6833 8.969 15.3176 8.82146 15.9562 8.85003C19.3219 8.85003 19.95 11.1 19.95 13.9594V19.8188Z" fill="white"/>
</svg>
